{
    "settings": {
        "topDir": "",
        "thumbColor": "#078900",
        "trackColor": "#23E224",
        "trackColorDone": "#23E224",
        "bufferColor": "rainbow",
        "videoOrder": "false",
        "playlist": "false",
        "uSetRez": "HD",
        "rezColorUp": "#078900",
        "rezColorSelect": "#23E224",
        "rezColorOver": "#55B112",
        "shoCtrlOnStart": "visible",
        "btnColUp": "#078900",
        "btnColOver": "#23E224",
        "btnBgTop": "#8C0096",
        "btnBgTopAlpha": 1,
        "btnBgBottom": "#000000",
        "btnBgBottomAlpha": 0.9,
        "nowPlayColor": "#23E224",
        "volOffset": 10,
        "hideCtrlsTime": 3
    },
    "Dogmeat_Can_Handle_Himself": {
        "name": "Dogmeat Can Handle Himself",
        "about": "Here is a nice little walk around the city outskirts. Little violence but mostly just nice mid-day shadows and gods-rays.\n\nVideo has minor video editing, cropping of saves, Intro and exit of gold flashy thingy.\n\nStill having occasional problems with screen tearing when screen-casting on linux using Nvidia drivers. It is getting better though. Luckily it is only when screen-casting.\n\n\nLorem ipsum dolor sit amet, consectetur adipiscing elit, sed do eiusmod tempor incididunt ut labore et dolore magna aliqua. Mi bibendum neque egestas congue quisque. Nulla facilisi morbi tempus iaculis urna id volutpat lacus. Mauris sit amet massa vitae tortor condimentum. Vel eros donec ac odio tempor orci. Eget mi proin sed libero. Ac tortor dignissim convallis aenean et tortor at risus. Morbi non arcu risus quis. Feugiat nisl pretium fusce id velit ut tortor. Urna id volutpat lacus laoreet non curabitur gravida arcu ac. Interdum posuere lorem ipsum dolor sit. In aliquam sem fringilla ut.\n\nConsequat semper viverra nam libero justo laoreet sit amet. Amet consectetur adipiscing elit ut aliquam purus. Pretium aenean pharetra magna ac placerat vestibulum lectus mauris ultrices. Eros donec ac odio tempor orci. Diam in arcu cursus euismod quis viverra nibh. Tristique et egestas quis ipsum suspendisse. Consequat interdum varius sit amet mattis. Sed enim ut sem viverra. Ipsum dolor sit amet consectetur adipiscing elit. Amet tellus cras adipiscing enim eu turpis egestas. Neque sodales ut etiam sit. Curabitur vitae nunc sed velit. Dolor sit amet consectetur adipiscing. Volutpat sed cras ornare arcu dui vivamus arcu. Facilisis gravida neque convallis a cras semper. Faucibus interdum posuere lorem ipsum dolor sit. Porta lorem mollis aliquam ut porttitor leo a.\n\nNulla aliquet porttitor lacus luctus accumsan tortor posuere ac. Malesuada fames ac turpis egestas. Lobortis scelerisque fermentum dui faucibus in ornare quam viverra orci. Aliquam sem et tortor consequat id porta nibh venenatis. Adipiscing elit duis tristique sollicitudin nibh. Ut sem viverra aliquet eget. Ac orci phasellus egestas tellus rutrum tellus. Facilisis volutpat est velit egestas dui id ornare arcu. Consequat interdum varius sit amet mattis vulputate enim nulla. Sagittis id consectetur purus ut faucibus pulvinar. Id diam maecenas ultricies mi eget mauris pharetra et. Dui faucibus in ornare quam viverra orci sagittis eu volutpat. Lorem ipsum dolor sit amet consectetur adipiscing elit. Quis enim lobortis scelerisque fermentum dui faucibus in. Risus in hendrerit gravida rutrum quisque non tellus orci.\n\nSem nulla pharetra diam sit amet nisl suscipit adipiscing. At lectus urna duis convallis convallis tellus id interdum. Cursus in hac habitasse platea dictumst quisque sagittis purus. Commodo ullamcorper a lacus vestibulum sed arcu. Tortor pretium viverra suspendisse potenti nullam ac. Morbi non arcu risus quis varius quam quisque id diam. Purus sit amet volutpat consequat mauris nunc congue. Vitae suscipit tellus mauris a diam. In pellentesque massa placerat duis ultricies lacus. Amet mauris commodo quis imperdiet massa tincidunt nunc pulvinar sapien. Tellus at urna condimentum mattis pellentesque id nibh tortor. Sed egestas egestas fringilla phasellus faucibus scelerisque eleifend donec pretium. Elit scelerisque mauris pellentesque pulvinar pellentesque habitant morbi tristique senectus.\n\nEtiam dignissim diam quis enim lobortis scelerisque fermentum. Integer malesuada nunc vel risus. Ac placerat vestibulum lectus mauris ultrices eros in. Nam at lectus urna duis convallis. Eget mauris pharetra et ultrices neque ornare aenean euismod elementum. Arcu non sodales neque sodales ut etiam. In hac habitasse platea dictumst vestibulum rhoncus est. Lacinia at quis risus sed vulputate odio. Sollicitudin nibh sit amet commodo nulla facilisi nullam vehicula ipsum. Leo duis ut diam quam. Cras ornare arcu dui vivamus. Volutpat est velit egestas dui id ornare arcu. Feugiat sed lectus vestibulum mattis ullamcorper velit sed. Viverra nibh cras pulvinar mattis.\n\nUt morbi tincidunt augue interdum. Venenatis lectus magna fringilla urna porttitor rhoncus dolor purus non. Urna condimentum mattis pellentesque id nibh tortor id aliquet lectus. Sit amet luctus venenatis lectus. Amet nulla facilisi morbi tempus. Aliquam etiam erat velit scelerisque in. Nibh cras pulvinar mattis nunc. Tellus mauris a diam maecenas sed enim ut. Pharetra et ultrices neque ornare aenean euismod elementum nisi. Ultricies integer quis auctor elit sed vulputate mi. Diam sit amet nisl suscipit adipiscing bibendum. Dui vivamus arcu felis bibendum ut tristique. Euismod lacinia at quis risus sed vulputate. Vestibulum morbi blandit cursus risus. Nunc aliquet bibendum enim facilisis gravida neque convallis a cras. Senectus et netus et malesuada. Ipsum nunc aliquet bibendum enim. Gravida dictum fusce ut placerat orci nulla pellentesque dignissim.\n\nNunc scelerisque viverra mauris in. Ut placerat orci nulla pellentesque dignissim. Sapien nec sagittis aliquam malesuada bibendum arcu vitae. Ultrices gravida dictum fusce ut placerat. Lacus suspendisse faucibus interdum posuere lorem ipsum. Velit egestas dui id ornare. Nunc lobortis mattis aliquam faucibus purus. Vestibulum lectus mauris ultrices eros in cursus turpis. Felis eget nunc lobortis mattis aliquam faucibus purus. Id diam vel quam elementum pulvinar etiam non quam. Rhoncus dolor purus non enim praesent elementum facilisis leo. Iaculis nunc sed augue lacus. Donec enim diam vulputate ut pharetra sit amet. Id consectetur purus ut faucibus. Mollis nunc sed id semper risus in. Aliquet nibh praesent tristique magna. Ligula ullamcorper malesuada proin libero. Ut diam quam nulla porttitor massa id neque aliquam. Nam libero justo laoreet sit amet cursus sit. Massa vitae tortor condimentum lacinia quis vel eros donec ac.\n\nElit scelerisque mauris pellentesque pulvinar pellentesque. Bibendum enim facilisis gravida neque. Vehicula ipsum a arcu cursus vitae. Ullamcorper dignissim cras tincidunt lobortis feugiat. Tortor at auctor urna nunc id cursus metus. Sit amet est placerat in egestas erat imperdiet sed. Aliquam ultrices sagittis orci a scelerisque purus. Fermentum et sollicitudin ac orci phasellus egestas. Bibendum est ultricies integer quis. Lectus sit amet est placerat in. Malesuada fames ac turpis egestas. Elementum pulvinar etiam non quam lacus suspendisse faucibus interdum posuere. Pulvinar elementum integer enim neque. Quisque sagittis purus sit amet volutpat consequat mauris. Tellus mauris a diam maecenas sed enim ut. Amet purus gravida quis blandit turpis. In hendrerit gravida rutrum quisque non. Convallis aenean et tortor at risus viverra adipiscing at in.\n\nPurus sit amet volutpat consequat mauris nunc congue. Orci sagittis eu volutpat odio. Lacus laoreet non curabitur gravida arcu. Sed euismod nisi porta lorem mollis. Dolor sit amet consectetur adipiscing. Quam nulla porttitor massa id neque aliquam vestibulum morbi blandit. Sit amet venenatis urna cursus. Interdum velit laoreet id donec ultrices. Vulputate enim nulla aliquet porttitor lacus luctus accumsan tortor posuere. Molestie ac feugiat sed lectus vestibulum mattis ullamcorper. Id semper risus in hendrerit gravida. Et malesuada fames ac turpis egestas maecenas pharetra convallis posuere. Eget velit aliquet sagittis id consectetur purus ut. Non quam lacus suspendisse faucibus interdum posuere lorem.\n\nDictum non consectetur a erat nam at. Aenean pharetra magna ac placerat vestibulum. Odio tempor orci dapibus ultrices in. Eget felis eget nunc lobortis mattis. Ultrices tincidunt arcu non sodales neque sodales ut etiam. Risus nullam eget felis eget nunc lobortis. Phasellus vestibulum lorem sed risus ultricies tristique nulla. Facilisis volutpat est velit egestas. Volutpat maecenas volutpat blandit aliquam etiam erat velit scelerisque. Ultrices vitae auctor eu augue ut lectus arcu bibendum at. Molestie a iaculis at erat pellentesque adipiscing commodo elit. Vestibulum morbi blandit cursus risus at ultrices. Arcu dictum varius duis at consectetur lorem. Non curabitur gravida arcu ac tortor dignissim convallis. Sit amet facilisis magna etiam tempor orci eu. Viverra ipsum nunc aliquet bibendum enim facilisis. Porta nibh venenatis cras sed felis eget velit aliquet sagittis. Habitasse platea dictumst quisque sagittis purus. Diam maecenas ultricies mi eget mauris pharetra et. Viverra ipsum nunc aliquet bibendum enim.\n\nLaoreet suspendisse interdum consectetur libero id faucibus nisl tincidunt. Quis eleifend quam adipiscing vitae proin sagittis. In metus vulputate eu scelerisque felis imperdiet proin fermentum leo. Rutrum quisque non tellus orci ac auctor augue. Eget lorem dolor sed viverra ipsum nunc aliquet. At elementum eu facilisis sed odio morbi quis. Etiam tempor orci eu lobortis elementum nibh tellus molestie nunc. Rhoncus est pellentesque elit ullamcorper dignissim cras tincidunt. Amet venenatis urna cursus eget nunc scelerisque viverra. Morbi tincidunt augue interdum velit.\n\nFacilisis magna etiam tempor orci. Turpis egestas sed tempus urna et pharetra pharetra massa. Netus et malesuada fames ac turpis egestas integer. In cursus turpis massa tincidunt dui ut. Elementum nisi quis eleifend quam adipiscing vitae proin sagittis. Tristique sollicitudin nibh sit amet commodo nulla. At tellus at urna condimentum mattis pellentesque id nibh. Suscipit adipiscing bibendum est ultricies integer quis auctor elit sed. Urna nunc id cursus metus. Morbi blandit cursus risus at ultrices mi. Ultricies mi quis hendrerit dolor. Amet massa vitae tortor condimentum lacinia quis vel eros donec. Urna id volutpat lacus laoreet non curabitur gravida arcu. Sit amet cursus sit amet dictum sit amet justo donec. Viverra orci sagittis eu volutpat. Praesent elementum facilisis leo vel fringilla. Cursus turpis massa tincidunt dui ut ornare. Morbi enim nunc faucibus a. Ultrices neque ornare aenean euismod elementum nisi.\n\nHendrerit gravida rutrum quisque non tellus orci. Congue mauris rhoncus aenean vel elit scelerisque mauris. Malesuada fames ac turpis egestas integer eget aliquet nibh praesent. Ut sem viverra aliquet eget sit. Commodo odio aenean sed adipiscing diam donec adipiscing tristique. Cursus vitae congue mauris rhoncus aenean vel elit scelerisque. Sed risus ultricies tristique nulla aliquet. Ornare arcu odio ut sem nulla pharetra diam sit. Vel facilisis volutpat est velit. Libero volutpat sed cras ornare. Ut tristique et egestas quis ipsum suspendisse ultrices. Gravida in fermentum et sollicitudin ac orci phasellus egestas tellus. Urna duis convallis convallis tellus id interdum velit laoreet id. Ipsum consequat nisl vel pretium. Orci eu lobortis elementum nibh tellus molestie nunc non blandit.\n\nNulla pellentesque dignissim enim sit amet venenatis urna. Etiam sit amet nisl purus in. Venenatis cras sed felis eget velit aliquet sagittis. Sem et tortor consequat id porta nibh venenatis cras sed. Aliquam ut porttitor leo a diam. Massa ultricies mi quis hendrerit dolor magna eget. Natoque penatibus et magnis dis. Ultrices tincidunt arcu non sodales neque sodales ut etiam. Nunc non blandit massa enim nec. Eget est lorem ipsum dolor. Id interdum velit laoreet id donec ultrices. Ultricies mi eget mauris pharetra et ultrices. Urna molestie at elementum eu facilisis. Ultricies leo integer malesuada nunc vel risus commodo viverra maecenas. Ac feugiat sed lectus vestibulum mattis ullamcorper velit. Sollicitudin aliquam ultrices sagittis orci a scelerisque. Pharetra sit amet aliquam id diam maecenas. Tristique magna sit amet purus gravida quis blandit. Fusce id velit ut tortor pretium viverra suspendisse.\n\nVolutpat ac tincidunt vitae semper quis lectus nulla. Sed viverra tellus in hac habitasse platea dictumst vestibulum rhoncus. Ridiculus mus mauris vitae ultricies leo integer. Proin fermentum leo vel orci porta non. Urna molestie at elementum eu facilisis sed odio morbi quis. Aliquet lectus proin nibh nisl. Integer enim neque volutpat ac tincidunt vitae semper quis. Augue interdum velit euismod in. Pellentesque habitant morbi tristique senectus et netus et malesuada fames. Massa sed elementum tempus egestas sed. Sed felis eget velit aliquet sagittis id consectetur purus ut. Praesent semper feugiat nibh sed pulvinar proin gravida. Ipsum dolor sit amet consectetur adipiscing elit ut aliquam.\n\nNibh cras pulvinar mattis nunc sed blandit. Ipsum consequat nisl vel pretium lectus quam id leo in. Lorem mollis aliquam ut porttitor leo a diam. Id leo in vitae turpis massa sed elementum tempus. Fames ac turpis egestas integer eget. Ultrices neque ornare aenean euismod elementum nisi. Vivamus arcu felis bibendum ut. Orci ac auctor augue mauris augue neque gravida in fermentum. Aenean pharetra magna ac placerat vestibulum lectus mauris ultrices eros. Urna neque viverra justo nec ultrices dui sapien eget. Urna cursus eget nunc scelerisque viverra mauris in. Sit amet facilisis magna etiam tempor orci eu lobortis elementum. Orci dapibus ultrices in iaculis nunc sed augue lacus viverra. Adipiscing vitae proin sagittis nisl rhoncus mattis rhoncus urna neque.\n\nEuismod quis viverra nibh cras pulvinar mattis nunc. Morbi tincidunt ornare massa eget egestas purus viverra. Magna fringilla urna porttitor rhoncus dolor purus non enim. Nulla pellentesque dignissim enim sit amet. Accumsan in nisl nisi scelerisque eu ultrices vitae. Sed ullamcorper morbi tincidunt ornare. Facilisi nullam vehicula ipsum a arcu cursus vitae congue mauris. Habitasse platea dictumst quisque sagittis purus sit amet. Tincidunt vitae semper quis lectus nulla at volutpat diam ut. Enim diam vulputate ut pharetra sit amet.\n\nOdio euismod lacinia at quis. Iaculis nunc sed augue lacus. Eget felis eget nunc lobortis mattis. Sed tempus urna et pharetra. Tincidunt praesent semper feugiat nibh sed. Eget velit aliquet sagittis id consectetur purus ut. Sit amet consectetur adipiscing elit. Morbi tristique senectus et netus et. A lacus vestibulum sed arcu. Adipiscing bibendum est ultricies integer quis auctor. Facilisis magna etiam tempor orci.\n\nFaucibus purus in massa tempor. Elit ut aliquam purus sit amet luctus venenatis. Magna ac placerat vestibulum lectus mauris ultrices eros in. Ac felis donec et odio pellentesque diam volutpat commodo sed. Volutpat blandit aliquam etiam erat. Fames ac turpis egestas integer eget. At quis risus sed vulputate odio. Ac tortor vitae purus faucibus ornare suspendisse sed. Non quam lacus suspendisse faucibus interdum posuere lorem ipsum dolor. Vitae ultricies leo integer malesuada nunc vel risus. Elementum facilisis leo vel fringilla. Fringilla urna porttitor rhoncus dolor purus non enim praesent elementum. Diam in arcu cursus euismod quis. Malesuada nunc vel risus commodo viverra. Mattis molestie a iaculis at erat pellentesque adipiscing. Vitae auctor eu augue ut lectus. Lorem dolor sed viverra ipsum nunc aliquet. Sit amet nisl suscipit adipiscing bibendum est ultricies integer. Ultricies tristique nulla aliquet enim.\n\nFaucibus et molestie ac feugiat sed. Nulla facilisi etiam dignissim diam quis enim lobortis scelerisque fermentum. Et netus et malesuada fames ac. Tempor nec feugiat nisl pretium. Orci a scelerisque purus semper. Risus pretium quam vulputate dignissim suspendisse in est ante. Sapien faucibus et molestie ac feugiat sed lectus. Vitae tempus quam pellentesque nec nam aliquam sem et. Quam adipiscing vitae proin sagittis nisl rhoncus mattis rhoncus urna. Scelerisque in dictum non consectetur a erat nam at lectus. Nisl nunc mi ipsum faucibus vitae. Convallis convallis tellus id interdum velit laoreet id donec ultrices.",
        "loc": "webVideos/Dogmeat_Can_Handle_Himself",
        "images": {
            "p_0": {
                "loc": "webVideos/Dogmeat_Can_Handle_Himself/images/Dogmeat_Can_Handle_Himself-0.png",
                "width": 400,
                "height": 240
            },
            "p_1": {
                "loc": "webVideos/Dogmeat_Can_Handle_Himself/images/Dogmeat_Can_Handle_Himself-1.png",
                "width": 400,
                "height": 240
            },
            "p_2": {
                "loc": "webVideos/Dogmeat_Can_Handle_Himself/images/Dogmeat_Can_Handle_Himself-2.png",
                "width": 400,
                "height": 240
            },
            "p_3": {
                "loc": "webVideos/Dogmeat_Can_Handle_Himself/images/Dogmeat_Can_Handle_Himself-3.png",
                "width": 400,
                "height": 240
            },
            "p_4": {
                "loc": "webVideos/Dogmeat_Can_Handle_Himself/images/Dogmeat_Can_Handle_Himself-4.png",
                "width": 400,
                "height": 240
            },
            "p_5": {
                "loc": "webVideos/Dogmeat_Can_Handle_Himself/images/Dogmeat_Can_Handle_Himself-5.png",
                "width": 400,
                "height": 240
            }
        },
        "thumb": {
            "t_0": {
                "loc": "webVideos/Dogmeat_Can_Handle_Himself/images/thumb/Dogmeat_Can_Handle_Himself-0.png",
                "width": 120,
                "height": 72
            },
            "t_1": {
                "loc": "webVideos/Dogmeat_Can_Handle_Himself/images/thumb/Dogmeat_Can_Handle_Himself-1.png",
                "width": 120,
                "height": 72
            },
            "t_2": {
                "loc": "webVideos/Dogmeat_Can_Handle_Himself/images/thumb/Dogmeat_Can_Handle_Himself-2.png",
                "width": 120,
                "height": 72
            },
            "t_3": {
                "loc": "webVideos/Dogmeat_Can_Handle_Himself/images/thumb/Dogmeat_Can_Handle_Himself-3.png",
                "width": 120,
                "height": 72
            },
            "t_4": {
                "loc": "webVideos/Dogmeat_Can_Handle_Himself/images/thumb/Dogmeat_Can_Handle_Himself-4.png",
                "width": 120,
                "height": 72
            },
            "t_5": {
                "loc": "webVideos/Dogmeat_Can_Handle_Himself/images/thumb/Dogmeat_Can_Handle_Himself-5.png",
                "width": 120,
                "height": 72
            }
        },
        "mp4": {
            "HQ": "mp4/Dogmeat_Can_Handle_Himself-1280x720.mp4",
            "HD": "mp4/Dogmeat_Can_Handle_Himself-1920x1080.mp4",
            "XD": "mp4/Dogmeat_Can_Handle_Himself-2560x1440.mp4",
            "M": "mp4/Dogmeat_Can_Handle_Himself-320x180.mp4",
            "LQ": "mp4/Dogmeat_Can_Handle_Himself-480x270.mp4",
            "SD": "mp4/Dogmeat_Can_Handle_Himself-720x406.mp4"
        },
        "webm": {
            "HQ": "webm/Dogmeat_Can_Handle_Himself-1280x720.webm",
            "HD": "webm/Dogmeat_Can_Handle_Himself-1920x1080.webm",
            "XD": "webm/Dogmeat_Can_Handle_Himself-2560x1440.webm",
            "M": "webm/Dogmeat_Can_Handle_Himself-320x180.webm",
            "LQ": "webm/Dogmeat_Can_Handle_Himself-480x270.webm",
            "SD": "webm/Dogmeat_Can_Handle_Himself-720x406.webm"
        }
    },
    "Flaming_Deathclaw-Slam": {
        "name": "Flaming Deathclaw-Slam",
        "about": "Just out for an evening stroll when all of a sudden I get the shit slammed out of me by a fucking Deathclaw!\n\nHere I did a basic intro but  tried to thinking more about the lighting of the cog and I could make the shadow consistent with the light source from the video.\n\n\nLorem ipsum dolor sit amet, consectetur adipiscing elit, sed do eiusmod tempor incididunt ut labore et dolore magna aliqua. Mi bibendum neque egestas congue quisque. Nulla facilisi morbi tempus iaculis urna id volutpat lacus. Mauris sit amet massa vitae tortor condimentum. Vel eros donec ac odio tempor orci. Eget mi proin sed libero. Ac tortor dignissim convallis aenean et tortor at risus. Morbi non arcu risus quis. Feugiat nisl pretium fusce id velit ut tortor. Urna id volutpat lacus laoreet non curabitur gravida arcu ac. Interdum posuere lorem ipsum dolor sit. In aliquam sem fringilla ut.\n\nConsequat semper viverra nam libero justo laoreet sit amet. Amet consectetur adipiscing elit ut aliquam purus. Pretium aenean pharetra magna ac placerat vestibulum lectus mauris ultrices. Eros donec ac odio tempor orci. Diam in arcu cursus euismod quis viverra nibh. Tristique et egestas quis ipsum suspendisse. Consequat interdum varius sit amet mattis. Sed enim ut sem viverra. Ipsum dolor sit amet consectetur adipiscing elit. Amet tellus cras adipiscing enim eu turpis egestas. Neque sodales ut etiam sit. Curabitur vitae nunc sed velit. Dolor sit amet consectetur adipiscing. Volutpat sed cras ornare arcu dui vivamus arcu. Facilisis gravida neque convallis a cras semper. Faucibus interdum posuere lorem ipsum dolor sit. Porta lorem mollis aliquam ut porttitor leo a.\n\nNulla aliquet porttitor lacus luctus accumsan tortor posuere ac. Malesuada fames ac turpis egestas. Lobortis scelerisque fermentum dui faucibus in ornare quam viverra orci. Aliquam sem et tortor consequat id porta nibh venenatis. Adipiscing elit duis tristique sollicitudin nibh. Ut sem viverra aliquet eget. Ac orci phasellus egestas tellus rutrum tellus. Facilisis volutpat est velit egestas dui id ornare arcu. Consequat interdum varius sit amet mattis vulputate enim nulla. Sagittis id consectetur purus ut faucibus pulvinar. Id diam maecenas ultricies mi eget mauris pharetra et. Dui faucibus in ornare quam viverra orci sagittis eu volutpat. Lorem ipsum dolor sit amet consectetur adipiscing elit. Quis enim lobortis scelerisque fermentum dui faucibus in. Risus in hendrerit gravida rutrum quisque non tellus orci.\n\nSem nulla pharetra diam sit amet nisl suscipit adipiscing. At lectus urna duis convallis convallis tellus id interdum. Cursus in hac habitasse platea dictumst quisque sagittis purus. Commodo ullamcorper a lacus vestibulum sed arcu. Tortor pretium viverra suspendisse potenti nullam ac. Morbi non arcu risus quis varius quam quisque id diam. Purus sit amet volutpat consequat mauris nunc congue. Vitae suscipit tellus mauris a diam. In pellentesque massa placerat duis ultricies lacus. Amet mauris commodo quis imperdiet massa tincidunt nunc pulvinar sapien. Tellus at urna condimentum mattis pellentesque id nibh tortor. Sed egestas egestas fringilla phasellus faucibus scelerisque eleifend donec pretium. Elit scelerisque mauris pellentesque pulvinar pellentesque habitant morbi tristique senectus.\n\nEtiam dignissim diam quis enim lobortis scelerisque fermentum. Integer malesuada nunc vel risus. Ac placerat vestibulum lectus mauris ultrices eros in. Nam at lectus urna duis convallis. Eget mauris pharetra et ultrices neque ornare aenean euismod elementum. Arcu non sodales neque sodales ut etiam. In hac habitasse platea dictumst vestibulum rhoncus est. Lacinia at quis risus sed vulputate odio. Sollicitudin nibh sit amet commodo nulla facilisi nullam vehicula ipsum. Leo duis ut diam quam. Cras ornare arcu dui vivamus. Volutpat est velit egestas dui id ornare arcu. Feugiat sed lectus vestibulum mattis ullamcorper velit sed. Viverra nibh cras pulvinar mattis.\n\nUt morbi tincidunt augue interdum. Venenatis lectus magna fringilla urna porttitor rhoncus dolor purus non. Urna condimentum mattis pellentesque id nibh tortor id aliquet lectus. Sit amet luctus venenatis lectus. Amet nulla facilisi morbi tempus. Aliquam etiam erat velit scelerisque in. Nibh cras pulvinar mattis nunc. Tellus mauris a diam maecenas sed enim ut. Pharetra et ultrices neque ornare aenean euismod elementum nisi. Ultricies integer quis auctor elit sed vulputate mi. Diam sit amet nisl suscipit adipiscing bibendum. Dui vivamus arcu felis bibendum ut tristique. Euismod lacinia at quis risus sed vulputate. Vestibulum morbi blandit cursus risus. Nunc aliquet bibendum enim facilisis gravida neque convallis a cras. Senectus et netus et malesuada. Ipsum nunc aliquet bibendum enim. Gravida dictum fusce ut placerat orci nulla pellentesque dignissim.\n\nNunc scelerisque viverra mauris in. Ut placerat orci nulla pellentesque dignissim. Sapien nec sagittis aliquam malesuada bibendum arcu vitae. Ultrices gravida dictum fusce ut placerat. Lacus suspendisse faucibus interdum posuere lorem ipsum. Velit egestas dui id ornare. Nunc lobortis mattis aliquam faucibus purus. Vestibulum lectus mauris ultrices eros in cursus turpis. Felis eget nunc lobortis mattis aliquam faucibus purus. Id diam vel quam elementum pulvinar etiam non quam. Rhoncus dolor purus non enim praesent elementum facilisis leo. Iaculis nunc sed augue lacus. Donec enim diam vulputate ut pharetra sit amet. Id consectetur purus ut faucibus. Mollis nunc sed id semper risus in. Aliquet nibh praesent tristique magna. Ligula ullamcorper malesuada proin libero. Ut diam quam nulla porttitor massa id neque aliquam. Nam libero justo laoreet sit amet cursus sit. Massa vitae tortor condimentum lacinia quis vel eros donec ac.\n\nElit scelerisque mauris pellentesque pulvinar pellentesque. Bibendum enim facilisis gravida neque. Vehicula ipsum a arcu cursus vitae. Ullamcorper dignissim cras tincidunt lobortis feugiat. Tortor at auctor urna nunc id cursus metus. Sit amet est placerat in egestas erat imperdiet sed. Aliquam ultrices sagittis orci a scelerisque purus. Fermentum et sollicitudin ac orci phasellus egestas. Bibendum est ultricies integer quis. Lectus sit amet est placerat in. Malesuada fames ac turpis egestas. Elementum pulvinar etiam non quam lacus suspendisse faucibus interdum posuere. Pulvinar elementum integer enim neque. Quisque sagittis purus sit amet volutpat consequat mauris. Tellus mauris a diam maecenas sed enim ut. Amet purus gravida quis blandit turpis. In hendrerit gravida rutrum quisque non. Convallis aenean et tortor at risus viverra adipiscing at in.\n\nPurus sit amet volutpat consequat mauris nunc congue. Orci sagittis eu volutpat odio. Lacus laoreet non curabitur gravida arcu. Sed euismod nisi porta lorem mollis. Dolor sit amet consectetur adipiscing. Quam nulla porttitor massa id neque aliquam vestibulum morbi blandit. Sit amet venenatis urna cursus. Interdum velit laoreet id donec ultrices. Vulputate enim nulla aliquet porttitor lacus luctus accumsan tortor posuere. Molestie ac feugiat sed lectus vestibulum mattis ullamcorper. Id semper risus in hendrerit gravida. Et malesuada fames ac turpis egestas maecenas pharetra convallis posuere. Eget velit aliquet sagittis id consectetur purus ut. Non quam lacus suspendisse faucibus interdum posuere lorem.\n\nDictum non consectetur a erat nam at. Aenean pharetra magna ac placerat vestibulum. Odio tempor orci dapibus ultrices in. Eget felis eget nunc lobortis mattis. Ultrices tincidunt arcu non sodales neque sodales ut etiam. Risus nullam eget felis eget nunc lobortis. Phasellus vestibulum lorem sed risus ultricies tristique nulla. Facilisis volutpat est velit egestas. Volutpat maecenas volutpat blandit aliquam etiam erat velit scelerisque. Ultrices vitae auctor eu augue ut lectus arcu bibendum at. Molestie a iaculis at erat pellentesque adipiscing commodo elit. Vestibulum morbi blandit cursus risus at ultrices. Arcu dictum varius duis at consectetur lorem. Non curabitur gravida arcu ac tortor dignissim convallis. Sit amet facilisis magna etiam tempor orci eu. Viverra ipsum nunc aliquet bibendum enim facilisis. Porta nibh venenatis cras sed felis eget velit aliquet sagittis. Habitasse platea dictumst quisque sagittis purus. Diam maecenas ultricies mi eget mauris pharetra et. Viverra ipsum nunc aliquet bibendum enim.\n\nLaoreet suspendisse interdum consectetur libero id faucibus nisl tincidunt. Quis eleifend quam adipiscing vitae proin sagittis. In metus vulputate eu scelerisque felis imperdiet proin fermentum leo. Rutrum quisque non tellus orci ac auctor augue. Eget lorem dolor sed viverra ipsum nunc aliquet. At elementum eu facilisis sed odio morbi quis. Etiam tempor orci eu lobortis elementum nibh tellus molestie nunc. Rhoncus est pellentesque elit ullamcorper dignissim cras tincidunt. Amet venenatis urna cursus eget nunc scelerisque viverra. Morbi tincidunt augue interdum velit.\n\nFacilisis magna etiam tempor orci. Turpis egestas sed tempus urna et pharetra pharetra massa. Netus et malesuada fames ac turpis egestas integer. In cursus turpis massa tincidunt dui ut. Elementum nisi quis eleifend quam adipiscing vitae proin sagittis. Tristique sollicitudin nibh sit amet commodo nulla. At tellus at urna condimentum mattis pellentesque id nibh. Suscipit adipiscing bibendum est ultricies integer quis auctor elit sed. Urna nunc id cursus metus. Morbi blandit cursus risus at ultrices mi. Ultricies mi quis hendrerit dolor. Amet massa vitae tortor condimentum lacinia quis vel eros donec. Urna id volutpat lacus laoreet non curabitur gravida arcu. Sit amet cursus sit amet dictum sit amet justo donec. Viverra orci sagittis eu volutpat. Praesent elementum facilisis leo vel fringilla. Cursus turpis massa tincidunt dui ut ornare. Morbi enim nunc faucibus a. Ultrices neque ornare aenean euismod elementum nisi.\n\nHendrerit gravida rutrum quisque non tellus orci. Congue mauris rhoncus aenean vel elit scelerisque mauris. Malesuada fames ac turpis egestas integer eget aliquet nibh praesent. Ut sem viverra aliquet eget sit. Commodo odio aenean sed adipiscing diam donec adipiscing tristique. Cursus vitae congue mauris rhoncus aenean vel elit scelerisque. Sed risus ultricies tristique nulla aliquet. Ornare arcu odio ut sem nulla pharetra diam sit. Vel facilisis volutpat est velit. Libero volutpat sed cras ornare. Ut tristique et egestas quis ipsum suspendisse ultrices. Gravida in fermentum et sollicitudin ac orci phasellus egestas tellus. Urna duis convallis convallis tellus id interdum velit laoreet id. Ipsum consequat nisl vel pretium. Orci eu lobortis elementum nibh tellus molestie nunc non blandit.\n\nNulla pellentesque dignissim enim sit amet venenatis urna. Etiam sit amet nisl purus in. Venenatis cras sed felis eget velit aliquet sagittis. Sem et tortor consequat id porta nibh venenatis cras sed. Aliquam ut porttitor leo a diam. Massa ultricies mi quis hendrerit dolor magna eget. Natoque penatibus et magnis dis. Ultrices tincidunt arcu non sodales neque sodales ut etiam. Nunc non blandit massa enim nec. Eget est lorem ipsum dolor. Id interdum velit laoreet id donec ultrices. Ultricies mi eget mauris pharetra et ultrices. Urna molestie at elementum eu facilisis. Ultricies leo integer malesuada nunc vel risus commodo viverra maecenas. Ac feugiat sed lectus vestibulum mattis ullamcorper velit. Sollicitudin aliquam ultrices sagittis orci a scelerisque. Pharetra sit amet aliquam id diam maecenas. Tristique magna sit amet purus gravida quis blandit. Fusce id velit ut tortor pretium viverra suspendisse.\n\nVolutpat ac tincidunt vitae semper quis lectus nulla. Sed viverra tellus in hac habitasse platea dictumst vestibulum rhoncus. Ridiculus mus mauris vitae ultricies leo integer. Proin fermentum leo vel orci porta non. Urna molestie at elementum eu facilisis sed odio morbi quis. Aliquet lectus proin nibh nisl. Integer enim neque volutpat ac tincidunt vitae semper quis. Augue interdum velit euismod in. Pellentesque habitant morbi tristique senectus et netus et malesuada fames. Massa sed elementum tempus egestas sed. Sed felis eget velit aliquet sagittis id consectetur purus ut. Praesent semper feugiat nibh sed pulvinar proin gravida. Ipsum dolor sit amet consectetur adipiscing elit ut aliquam.\n\nNibh cras pulvinar mattis nunc sed blandit. Ipsum consequat nisl vel pretium lectus quam id leo in. Lorem mollis aliquam ut porttitor leo a diam. Id leo in vitae turpis massa sed elementum tempus. Fames ac turpis egestas integer eget. Ultrices neque ornare aenean euismod elementum nisi. Vivamus arcu felis bibendum ut. Orci ac auctor augue mauris augue neque gravida in fermentum. Aenean pharetra magna ac placerat vestibulum lectus mauris ultrices eros. Urna neque viverra justo nec ultrices dui sapien eget. Urna cursus eget nunc scelerisque viverra mauris in. Sit amet facilisis magna etiam tempor orci eu lobortis elementum. Orci dapibus ultrices in iaculis nunc sed augue lacus viverra. Adipiscing vitae proin sagittis nisl rhoncus mattis rhoncus urna neque.\n\nEuismod quis viverra nibh cras pulvinar mattis nunc. Morbi tincidunt ornare massa eget egestas purus viverra. Magna fringilla urna porttitor rhoncus dolor purus non enim. Nulla pellentesque dignissim enim sit amet. Accumsan in nisl nisi scelerisque eu ultrices vitae. Sed ullamcorper morbi tincidunt ornare. Facilisi nullam vehicula ipsum a arcu cursus vitae congue mauris. Habitasse platea dictumst quisque sagittis purus sit amet. Tincidunt vitae semper quis lectus nulla at volutpat diam ut. Enim diam vulputate ut pharetra sit amet.\n\nOdio euismod lacinia at quis. Iaculis nunc sed augue lacus. Eget felis eget nunc lobortis mattis. Sed tempus urna et pharetra. Tincidunt praesent semper feugiat nibh sed. Eget velit aliquet sagittis id consectetur purus ut. Sit amet consectetur adipiscing elit. Morbi tristique senectus et netus et. A lacus vestibulum sed arcu. Adipiscing bibendum est ultricies integer quis auctor. Facilisis magna etiam tempor orci.\n\nFaucibus purus in massa tempor. Elit ut aliquam purus sit amet luctus venenatis. Magna ac placerat vestibulum lectus mauris ultrices eros in. Ac felis donec et odio pellentesque diam volutpat commodo sed. Volutpat blandit aliquam etiam erat. Fames ac turpis egestas integer eget. At quis risus sed vulputate odio. Ac tortor vitae purus faucibus ornare suspendisse sed. Non quam lacus suspendisse faucibus interdum posuere lorem ipsum dolor. Vitae ultricies leo integer malesuada nunc vel risus. Elementum facilisis leo vel fringilla. Fringilla urna porttitor rhoncus dolor purus non enim praesent elementum. Diam in arcu cursus euismod quis. Malesuada nunc vel risus commodo viverra. Mattis molestie a iaculis at erat pellentesque adipiscing. Vitae auctor eu augue ut lectus. Lorem dolor sed viverra ipsum nunc aliquet. Sit amet nisl suscipit adipiscing bibendum est ultricies integer. Ultricies tristique nulla aliquet enim.\n\nFaucibus et molestie ac feugiat sed. Nulla facilisi etiam dignissim diam quis enim lobortis scelerisque fermentum. Et netus et malesuada fames ac. Tempor nec feugiat nisl pretium. Orci a scelerisque purus semper. Risus pretium quam vulputate dignissim suspendisse in est ante. Sapien faucibus et molestie ac feugiat sed lectus. Vitae tempus quam pellentesque nec nam aliquam sem et. Quam adipiscing vitae proin sagittis nisl rhoncus mattis rhoncus urna. Scelerisque in dictum non consectetur a erat nam at lectus. Nisl nunc mi ipsum faucibus vitae. Convallis convallis tellus id interdum velit laoreet id donec ultrices.",
        "loc": "webVideos/Flaming_Deathclaw-Slam",
        "images": {
            "p_0": {
                "loc": "webVideos/Flaming_Deathclaw-Slam/images/Flaming_Deathclaw-Slam-0.png",
                "width": 400,
                "height": 240
            },
            "p_1": {
                "loc": "webVideos/Flaming_Deathclaw-Slam/images/Flaming_Deathclaw-Slam-1.png",
                "width": 400,
                "height": 240
            },
            "p_2": {
                "loc": "webVideos/Flaming_Deathclaw-Slam/images/Flaming_Deathclaw-Slam-2.png",
                "width": 400,
                "height": 240
            },
            "p_3": {
                "loc": "webVideos/Flaming_Deathclaw-Slam/images/Flaming_Deathclaw-Slam-3.png",
                "width": 400,
                "height": 240
            }
        },
        "thumb": {
            "t_0": {
                "loc": "webVideos/Flaming_Deathclaw-Slam/images/thumb/Flaming_Deathclaw-Slam-0.png",
                "width": 120,
                "height": 72
            },
            "t_1": {
                "loc": "webVideos/Flaming_Deathclaw-Slam/images/thumb/Flaming_Deathclaw-Slam-1.png",
                "width": 120,
                "height": 72
            },
            "t_2": {
                "loc": "webVideos/Flaming_Deathclaw-Slam/images/thumb/Flaming_Deathclaw-Slam-2.png",
                "width": 120,
                "height": 72
            },
            "t_3": {
                "loc": "webVideos/Flaming_Deathclaw-Slam/images/thumb/Flaming_Deathclaw-Slam-3.png",
                "width": 120,
                "height": 72
            }
        },
        "mp4": {
            "HQ": "mp4/Flaming_Deathclaw-Slam-1280x720.mp4",
            "HD": "mp4/Flaming_Deathclaw-Slam-1920x1080.mp4",
            "XD": "mp4/Flaming_Deathclaw-Slam-2560x1440.mp4",
            "M": "mp4/Flaming_Deathclaw-Slam-320x180.mp4",
            "LQ": "mp4/Flaming_Deathclaw-Slam-480x270.mp4",
            "SD": "mp4/Flaming_Deathclaw-Slam-720x406.mp4"
        },
        "webm": {
            "HQ": "webm/Flaming_Deathclaw-Slam-1280x720.webm",
            "HD": "webm/Flaming_Deathclaw-Slam-1920x1080.webm",
            "XD": "webm/Flaming_Deathclaw-Slam-2560x1440.webm",
            "M": "webm/Flaming_Deathclaw-Slam-320x180.webm",
            "LQ": "webm/Flaming_Deathclaw-Slam-480x270.webm",
            "SD": "webm/Flaming_Deathclaw-Slam-720x406.webm"
        }
    },
    "Toxic_Run": {
        "name": "Toxic Run",
        "about": "In this video I finally get a few good water simulations. I'm experimenting with trying to get the right color combination to make the foam and/or the water and the bubbles look like they are radioactive and the water to just be water.\n\nI still don't really like it but it is good for a milestone video.\n\n I really liked the original video's vibe. Just run!\n\nThis is the first video I tried to do some fade in/out transitions before/after the blender animation rolls in. One thing I forgot to mention is for every video in this series, after I cut and edit the animation the cyan in the colors palate gets way off. Like the white balance is off after being put through two different renders. Luckily it looked like it was only the cyan spectrum so I used a Curves Strip Modifier to bring the cyan back to the original color in the video.\n\nI just did a little fix up on this video. I noticed that the whole video was a little dark and off color so I fixed the color and brightness a bit before cutting the beginning and end of the video for spash in/out.\n\nThe video is starting to look better!",
        "loc": "webVideos/Toxic_Run",
        "images": {
            "p_0": {
                "loc": "webVideos/Toxic_Run/images/Toxic_Run-0.png",
                "width": 400,
                "height": 240
            },
            "p_1": {
                "loc": "webVideos/Toxic_Run/images/Toxic_Run-1.png",
                "width": 400,
                "height": 240
            },
            "p_2": {
                "loc": "webVideos/Toxic_Run/images/Toxic_Run-2.png",
                "width": 400,
                "height": 240
            },
            "p_3": {
                "loc": "webVideos/Toxic_Run/images/Toxic_Run-3.png",
                "width": 400,
                "height": 240
            },
            "p_4": {
                "loc": "webVideos/Toxic_Run/images/Toxic_Run-4.png",
                "width": 400,
                "height": 240
            },
            "p_5": {
                "loc": "webVideos/Toxic_Run/images/Toxic_Run-5.png",
                "width": 400,
                "height": 240
            }
        },
        "thumb": {
            "t_0": {
                "loc": "webVideos/Toxic_Run/images/thumb/Toxic_Run-0.png",
                "width": 120,
                "height": 72
            },
            "t_1": {
                "loc": "webVideos/Toxic_Run/images/thumb/Toxic_Run-1.png",
                "width": 120,
                "height": 72
            },
            "t_2": {
                "loc": "webVideos/Toxic_Run/images/thumb/Toxic_Run-2.png",
                "width": 120,
                "height": 72
            },
            "t_3": {
                "loc": "webVideos/Toxic_Run/images/thumb/Toxic_Run-3.png",
                "width": 120,
                "height": 72
            },
            "t_4": {
                "loc": "webVideos/Toxic_Run/images/thumb/Toxic_Run-4.png",
                "width": 120,
                "height": 72
            },
            "t_5": {
                "loc": "webVideos/Toxic_Run/images/thumb/Toxic_Run-5.png",
                "width": 120,
                "height": 72
            }
        },
        "mp4": {
            "HQ": "mp4/Toxic_Run-1280x720.mp4",
            "HD": "mp4/Toxic_Run-1920x1080.mp4",
            "XD": "mp4/Toxic_Run-2560x1440.mp4",
            "M": "mp4/Toxic_Run-320x180.mp4",
            "LQ": "mp4/Toxic_Run-480x270.mp4",
            "SD": "mp4/Toxic_Run-720x406.mp4"
        },
        "webm": {
            "HQ": "webm/Toxic_Run-1280x720.webm",
            "HD": "webm/Toxic_Run-1920x1080.webm",
            "XD": "webm/Toxic_Run-2560x1440.webm",
            "M": "webm/Toxic_Run-320x180.webm",
            "LQ": "webm/Toxic_Run-480x270.webm",
            "SD": "webm/Toxic_Run-720x406.webm"
        }
    },
    "toxicRun": {
        "name": "toxicRun",
        "about": "In this video I finally get a few good water simulations. I'm experimenting with trying to get the right color combination to make the foam and/or the water and the bubbles look like they are radioactive and the water to just be water.\n\nI still don't really like it but it is good for a milestone video.\n\n I really liked the original video's vibe. Just run!\n\nThis is the first video I tried to do some fade in/out transitions before/after the blender animation rolls in. One thing I forgot to mention is for every video in this series, after I cut and edit the animation the cyan in the colors palate gets way off. Like the white balance is off after being put through two different renders. Luckily it looked like it was only the cyan spectrum so I used a Curves Strip Modifier to bring the cyan back to the original color in the video.",
        "loc": "webVideos/toxicRun",
        "images": {
            "p_0": {
                "loc": "webVideos/toxicRun/images/toxicRun-0.png",
                "width": 400,
                "height": 240
            },
            "p_1": {
                "loc": "webVideos/toxicRun/images/toxicRun-1.png",
                "width": 400,
                "height": 240
            },
            "p_2": {
                "loc": "webVideos/toxicRun/images/toxicRun-2.png",
                "width": 400,
                "height": 240
            },
            "p_3": {
                "loc": "webVideos/toxicRun/images/toxicRun-3.png",
                "width": 400,
                "height": 240
            },
            "p_4": {
                "loc": "webVideos/toxicRun/images/toxicRun-4.png",
                "width": 400,
                "height": 240
            },
            "p_5": {
                "loc": "webVideos/toxicRun/images/toxicRun-5.png",
                "width": 400,
                "height": 240
            }
        },
        "thumb": {
            "t_0": {
                "loc": "webVideos/toxicRun/images/thumb/toxicRun-0.png",
                "width": 120,
                "height": 72
            },
            "t_1": {
                "loc": "webVideos/toxicRun/images/thumb/toxicRun-1.png",
                "width": 120,
                "height": 72
            },
            "t_2": {
                "loc": "webVideos/toxicRun/images/thumb/toxicRun-2.png",
                "width": 120,
                "height": 72
            },
            "t_3": {
                "loc": "webVideos/toxicRun/images/thumb/toxicRun-3.png",
                "width": 120,
                "height": 72
            },
            "t_4": {
                "loc": "webVideos/toxicRun/images/thumb/toxicRun-4.png",
                "width": 120,
                "height": 72
            },
            "t_5": {
                "loc": "webVideos/toxicRun/images/thumb/toxicRun-5.png",
                "width": 120,
                "height": 72
            }
        },
        "mp4": {
            "HQ": "mp4/toxicRun-1280x720.mp4",
            "HD": "mp4/toxicRun-1920x1080.mp4",
            "XD": "mp4/toxicRun-2560x1440.mp4",
            "M": "mp4/toxicRun-320x180.mp4",
            "LQ": "mp4/toxicRun-480x270.mp4",
            "SD": "mp4/toxicRun-720x406.mp4"
        },
        "webm": {
            "HQ": "webm/toxicRun-1280x720.webm",
            "HD": "webm/toxicRun-1920x1080.webm",
            "XD": "webm/toxicRun-2560x1440.webm",
            "M": "webm/toxicRun-320x180.webm",
            "LQ": "webm/toxicRun-480x270.webm",
            "SD": "webm/toxicRun-720x406.webm"
        }
    }
}